{
  "map": "images/3-map_earth.jpg",
  "diameter": 12742,
  "distance": 149600000,
  "rotation_speed": 1,
  "orbital_period": 365.25,
  "display": {
    "Diameter" : "12,742 km",
    "Distance from Sun" : "149,600,000 km",
    "Rotation Speed" : "1 Day",
    "Orbital Period": "365.25 Days"
  }
}


