{
  "map": "images/2-map_venus.jpg",
  "diameter": 12104,
  "distance": 108200000,
  "rotation_speed": 116.75,
  "orbital_period": 225,
  "display": {
    "Diameter" : "12,104 km",
    "Distance from Sun" : "108,200,000 km",
    "Rotation Speed" : "116 Days, 18 Hours",
    "Orbital Period": "225 Days"
  }
}


